<svg xmlns="http://www.w3.org/2000/svg" width="30" height="26.25" viewBox="0 0 30 26.25">
  <path id="Icon_awesome-sliders-h" data-name="Icon awesome-sliders-h" d="M29.063,22.5H9.375v-.937a.94.94,0,0,0-.937-.937H6.563a.94.94,0,0,0-.937.938V22.5H.938A.94.94,0,0,0,0,23.438v1.875a.94.94,0,0,0,.938.938H5.625v.938a.94.94,0,0,0,.938.938H8.438a.94.94,0,0,0,.938-.937V26.25H29.063A.94.94,0,0,0,30,25.313V23.438A.94.94,0,0,0,29.063,22.5Zm0-9.375H24.375v-.937a.94.94,0,0,0-.937-.937H21.563a.94.94,0,0,0-.937.938v.938H.938A.94.94,0,0,0,0,14.063v1.875a.94.94,0,0,0,.938.938H20.625v.938a.94.94,0,0,0,.938.938h1.875a.94.94,0,0,0,.938-.937v-.937h4.688A.94.94,0,0,0,30,15.938V14.063A.94.94,0,0,0,29.063,13.125Zm0-9.375H16.875V2.813a.94.94,0,0,0-.937-.937H14.063a.94.94,0,0,0-.937.938V3.75H.938A.94.94,0,0,0,0,4.688V6.563A.94.94,0,0,0,.938,7.5H13.125v.938a.94.94,0,0,0,.938.938h1.875a.94.94,0,0,0,.938-.937V7.5H29.063A.94.94,0,0,0,30,6.563V4.688A.94.94,0,0,0,29.063,3.75Z" transform="translate(0 -1.875)" fill="#707477"/>
</svg>
